<mxfile host="Electron" modified="2023-10-11T15:27:07.888Z" agent="Mozilla/5.0 (Macintosh; Intel Mac OS X 10_15_7) AppleWebKit/537.36 (KHTML, like Gecko) draw.io/22.0.0 Chrome/114.0.5735.289 Electron/25.8.3 Safari/537.36" etag="Nm1pHgUj_kBWm1nzj7wo" version="22.0.0" type="device">
  <diagram name="Page-1" id="74e2e168-ea6b-b213-b513-2b3c1d86103e">
    <mxGraphModel dx="1194" dy="-82" grid="1" gridSize="10" guides="1" tooltips="1" connect="1" arrows="1" fold="1" page="1" pageScale="1" pageWidth="1100" pageHeight="850" background="none" math="0" shadow="0">
      <root>
        <mxCell id="0" />
        <mxCell id="1" parent="0" />
        <mxCell id="PQ8hgCYhNRFPZh5xkb21-6" value="" style="rounded=1;whiteSpace=wrap;html=1;fillColor=none;dashed=1;dashPattern=8 8;" parent="1" vertex="1">
          <mxGeometry x="180" y="880" width="550" height="120" as="geometry" />
        </mxCell>
        <mxCell id="PQ8hgCYhNRFPZh5xkb21-2" value="Tokenizer" style="shape=step;perimeter=stepPerimeter;whiteSpace=wrap;html=1;fixedSize=1;fillColor=#388E3C;" parent="1" vertex="1">
          <mxGeometry x="190" y="900" width="120" height="80" as="geometry" />
        </mxCell>
        <mxCell id="PQ8hgCYhNRFPZh5xkb21-3" value="Tagger" style="shape=step;perimeter=stepPerimeter;whiteSpace=wrap;html=1;fixedSize=1;fillColor=#4CAF50;" parent="1" vertex="1">
          <mxGeometry x="310" y="900" width="120" height="80" as="geometry" />
        </mxCell>
        <mxCell id="PQ8hgCYhNRFPZh5xkb21-4" value="Parser" style="shape=step;perimeter=stepPerimeter;whiteSpace=wrap;html=1;fixedSize=1;fillColor=#81C784;" parent="1" vertex="1">
          <mxGeometry x="410" y="900" width="120" height="80" as="geometry" />
        </mxCell>
        <mxCell id="PQ8hgCYhNRFPZh5xkb21-7" value="" style="rounded=1;whiteSpace=wrap;html=1;fillColor=none;dashed=1;dashPattern=8 8;" parent="1" vertex="1">
          <mxGeometry x="730" y="880" width="530" height="120" as="geometry" />
        </mxCell>
        <mxCell id="PQ8hgCYhNRFPZh5xkb21-9" value="Speech&lt;br&gt;Tagger" style="shape=step;perimeter=stepPerimeter;whiteSpace=wrap;html=1;fixedSize=1;fillColor=#F48FB1;" parent="1" vertex="1">
          <mxGeometry x="930" y="900" width="120" height="80" as="geometry" />
        </mxCell>
        <mxCell id="PQ8hgCYhNRFPZh5xkb21-10" value="&lt;div&gt;Clausizer&lt;/div&gt;" style="shape=step;perimeter=stepPerimeter;whiteSpace=wrap;html=1;fixedSize=1;fillColor=#D81B60;" parent="1" vertex="1">
          <mxGeometry x="730" y="900" width="120" height="80" as="geometry" />
        </mxCell>
        <mxCell id="PQ8hgCYhNRFPZh5xkb21-11" value="VerbAnalyzer" style="shape=step;perimeter=stepPerimeter;whiteSpace=wrap;html=1;fixedSize=1;fillColor=#EC407A;" parent="1" vertex="1">
          <mxGeometry x="830" y="900" width="120" height="80" as="geometry" />
        </mxCell>
        <mxCell id="PQ8hgCYhNRFPZh5xkb21-17" value="Built-in components" style="rounded=1;whiteSpace=wrap;html=1;fillColor=#81C784;" parent="1" vertex="1">
          <mxGeometry x="397.5" y="870" width="115" height="20" as="geometry" />
        </mxCell>
        <mxCell id="PQ8hgCYhNRFPZh5xkb21-18" value="Custom Components" style="rounded=1;whiteSpace=wrap;html=1;fillColor=#F48FB1;" parent="1" vertex="1">
          <mxGeometry x="927.5" y="870" width="125" height="20" as="geometry" />
        </mxCell>
        <mxCell id="PQ8hgCYhNRFPZh5xkb21-19" style="edgeStyle=orthogonalEdgeStyle;rounded=0;orthogonalLoop=1;jettySize=auto;html=1;exitX=0.5;exitY=1;exitDx=0;exitDy=0;" parent="1" edge="1">
          <mxGeometry relative="1" as="geometry">
            <mxPoint x="82.5" y="972.5" as="sourcePoint" />
            <mxPoint x="82.5" y="972.5" as="targetPoint" />
          </mxGeometry>
        </mxCell>
        <mxCell id="PQ8hgCYhNRFPZh5xkb21-20" value="Text" style="rounded=1;whiteSpace=wrap;html=1;fillColor=#CCCCCC;" parent="1" vertex="1">
          <mxGeometry x="40" y="910" width="80" height="60" as="geometry" />
        </mxCell>
        <mxCell id="PQ8hgCYhNRFPZh5xkb21-21" value="" style="endArrow=block;html=1;rounded=0;endFill=1;" parent="1" edge="1">
          <mxGeometry width="50" height="50" relative="1" as="geometry">
            <mxPoint x="130" y="939.8199999999999" as="sourcePoint" />
            <mxPoint x="170" y="939.8199999999999" as="targetPoint" />
          </mxGeometry>
        </mxCell>
        <mxCell id="PQ8hgCYhNRFPZh5xkb21-24" value="&lt;div&gt;Reflection&lt;/div&gt;&lt;div&gt;Tagger&lt;/div&gt;" style="shape=step;perimeter=stepPerimeter;whiteSpace=wrap;html=1;fixedSize=1;fillColor=#F8BBD0;" parent="1" vertex="1">
          <mxGeometry x="1030" y="900" width="120" height="80" as="geometry" />
        </mxCell>
        <mxCell id="PQ8hgCYhNRFPZh5xkb21-25" value="&lt;div&gt;...&lt;/div&gt;" style="shape=step;perimeter=stepPerimeter;whiteSpace=wrap;html=1;fixedSize=1;fillColor=#FCE4EC;" parent="1" vertex="1">
          <mxGeometry x="1130" y="900" width="120" height="80" as="geometry" />
        </mxCell>
        <mxCell id="PQ8hgCYhNRFPZh5xkb21-26" value="Entity&lt;br&gt;Recognizer" style="shape=step;perimeter=stepPerimeter;whiteSpace=wrap;html=1;fixedSize=1;fillColor=#C8E6C9;" parent="1" vertex="1">
          <mxGeometry x="510" y="900" width="120" height="80" as="geometry" />
        </mxCell>
        <mxCell id="PQ8hgCYhNRFPZh5xkb21-27" value="..." style="shape=step;perimeter=stepPerimeter;whiteSpace=wrap;html=1;fixedSize=1;fillColor=#E8F5E9;" parent="1" vertex="1">
          <mxGeometry x="610" y="900" width="120" height="80" as="geometry" />
        </mxCell>
        <mxCell id="PQ8hgCYhNRFPZh5xkb21-28" value="" style="endArrow=block;html=1;rounded=0;endFill=1;" parent="1" edge="1">
          <mxGeometry width="50" height="50" relative="1" as="geometry">
            <mxPoint x="1270" y="939.8199999999999" as="sourcePoint" />
            <mxPoint x="1310" y="939.8199999999999" as="targetPoint" />
            <Array as="points">
              <mxPoint x="1310" y="940.02" />
            </Array>
          </mxGeometry>
        </mxCell>
        <mxCell id="PQ8hgCYhNRFPZh5xkb21-29" value="Doc" style="rounded=1;whiteSpace=wrap;html=1;fillColor=#dae8fc;strokeColor=#6c8ebf;" parent="1" vertex="1">
          <mxGeometry x="1320" y="910" width="80" height="60" as="geometry" />
        </mxCell>
      </root>
    </mxGraphModel>
  </diagram>
</mxfile>
